…
Look at pizza places. dba variables

``` r
rest_inspec |> 
  mutate(dba = str_to_sentence(dba)) |> 
  filter(str_detect(dba, "Pizza"))
```

    ## # A tibble: 775 × 18
    ##    action          boro  building  camis critical_flag cuisine_description dba  
    ##    <chr>           <chr> <chr>     <int> <chr>         <chr>               <chr>
    ##  1 Violations wer… MANH… 151      5.00e7 Not Critical  Pizza               Pizz…
    ##  2 Violations wer… MANH… 151      5.00e7 Critical      Pizza               Pizz…
    ##  3 Violations wer… MANH… 151      5.00e7 Critical      Pizza               Pizz…
    ##  4 Violations wer… MANH… 15       5.01e7 Critical      Pizza               & Pi…
    ##  5 Violations wer… MANH… 151      5.00e7 Critical      Pizza               Pizz…
    ##  6 Violations wer… MANH… 151      5.00e7 Not Critical  Pizza               Pizz…
    ##  7 Violations wer… MANH… 15       5.01e7 Critical      Pizza               & Pi…
    ##  8 Violations wer… MANH… 151      5.00e7 Critical      Pizza               Pizz…
    ##  9 Violations wer… MANH… 84       5.00e7 Not Critical  Pizza               Pizza
    ## 10 Violations wer… MANH… 525      5.01e7 Not Critical  Pizza               Pizz…
    ## # ℹ 765 more rows
    ## # ℹ 11 more variables: inspection_date <dttm>, inspection_type <chr>,
    ## #   phone <chr>, record_date <dttm>, score <int>, street <chr>,
    ## #   violation_code <chr>, violation_description <chr>, zipcode <int>,
    ## #   grade <chr>, grade_date <dttm>
…
